{
    "/assets/js/custom/common-crud.js": "/assets/js/custom/common-crud.js?id=ba485cb5f6adbdb8e9ca",
    "/assets/js/custom/custom.js": "/assets/js/custom/custom.js?id=ab5b56592f8eae7da6a9",
    "/assets/js/custom/custom-datatable.js": "/assets/js/custom/custom-datatable.js?id=940fcb2a28ed62650b3e",
    "/assets/js/profile.js": "/assets/js/profile.js?id=d7aa6da8196e569a6ce4",
    "/js/scripts.min.js": "/js/scripts.min.js?id=8e384c37fdd4f5f1a6a5",
    "/assets/css/stisla.css": "/assets/css/stisla.css?id=c6e8fb897e7c86fd7a3c",
    "/assets/css/custom.css": "/assets/css/custom.css?id=f504991dbd9c4deac5c4",
    "/assets/css/bootstrap.min.css": "/assets/css/bootstrap.min.css?id=023b3876bb73aa541367",
    "/assets/css/jquery.dataTables.min.css": "/assets/css/jquery.dataTables.min.css?id=f695ef03f1caf96585e2",
    "/assets/css/font-awesome.min.css": "/assets/css/font-awesome.min.css?id=b227b1617a1763c8bc05",
    "/assets/css/select2.min.css": "/assets/css/select2.min.css?id=9f54e6414f87e0d14b9e",
    "/assets/css/summernote.min.css": "/assets/css/summernote.min.css?id=30e36f8dc02a2a92d661",
    "/assets/css/sweetalert.css": "/assets/css/sweetalert.css?id=196c08c89f0c8a9b688a",
    "/assets/css/iziToast.min.css": "/assets/css/iziToast.min.css?id=b2f7bdc3ed47f5956551",
    "/assets/js/jquery.nicescroll.js": "/assets/js/jquery.nicescroll.js?id=81e4e7aa25d44a83b8f5",
    "/assets/js/jquery.min.js": "/assets/js/jquery.min.js?id=60f9cbeb0ef7acca791b",
    "/assets/js/popper.min.js": "/assets/js/popper.min.js?id=58bd3af41dba56aab9c4",
    "/assets/js/bootstrap.min.js": "/assets/js/bootstrap.min.js?id=1954c937a5c4a9963f7f",
    "/assets/js/iziToast.min.js": "/assets/js/iziToast.min.js?id=aa038df3760cbd7c8033",
    "/assets/js/sweetalert.min.js": "/assets/js/sweetalert.min.js?id=5a33b7909f9baaea7b47",
    "/assets/js/select2.min.js": "/assets/js/select2.min.js?id=8d435cd331d1ff270899",
    "/assets/js/jquery.dataTables.min.js": "/assets/js/jquery.dataTables.min.js?id=e2148b1bfc0b41a9b94e",
    "/assets/js/summernote.min.js": "/assets/js/summernote.min.js?id=26e879c3b4050466c76c",
    "/assets/js/moment.min.js": "/assets/js/moment.min.js?id=2fd3d34a77b7853bbe26"
}
